{
    "required": true,
    "minVersion": "0.8",
    "package": "com.seibel.distanthorizons.fabric.mixins",
    "mixins": [
        "server.unsafe.MixinThreadingDetector",
        "server.MixinChunkGenerator",
        "server.MixinChunkMap",
        "server.MixinUtilBackgroundThread"
    ],
    "client": [
        "client.MixinClientLevel",
        "client.MixinClientPacketListener",
        "client.MixinDebugScreenOverlay",
        "client.MixinFogRenderer",
        "client.MixinGameRenderer",
        "client.MixinLevelRenderer",
        "client.MixinLightmap",
        "client.MixinOptionsScreen",
        "client.MixinMinecraft",
        "client.MixinTextureUtil"
    ],
    "server": [],
    "injectors": {
        "defaultRequire": 1
    },
    "plugin": "com.seibel.distanthorizons.fabric.mixins.FabricMixinPlugin"
}
